<?xml version="1.0" encoding="utf-8"?>
<!-- Generator: Adobe Illustrator 21.0.0, SVG Export Plug-In . SVG Version: 6.00 Build 0)  -->
<svg version="1.1" id="Слой_1" xmlns="http://www.w3.org/2000/svg" xmlns:xlink="http://www.w3.org/1999/xlink" x="0px" y="0px"
	 viewBox="0 0 2222 2500" style="enable-background:new 0 0 2222 2500;" xml:space="preserve">
<style type="text/css">
	.st0{fill:#AF4F9B;}
	.st1{fill:#761C7E;}
	.st2{fill:#99318F;}
	.st3{fill:#FFFFFF;}
</style>
<path class="st0" d="M1790.8,1204l-12.6,62.3h52.6l12.6-62.3H1790.8z M1363.2,1513.4c0.8-0.8,1.6-1.5,2.4-2.3v0
	C1364.8,1511.9,1364,1512.7,1363.2,1513.4z M1790.8,1204l-12.6,62.3h52.6l12.6-62.3H1790.8z M1790.8,1204l-12.6,62.3h52.6l12.6-62.3
	H1790.8z M1363.2,1513.4c0.8-0.8,1.6-1.5,2.4-2.3v0C1364.8,1511.9,1364,1512.7,1363.2,1513.4z M1790.8,1204l-12.6,62.3h52.6
	l12.6-62.3H1790.8z M1790.8,1204l-12.6,62.3h52.6l12.6-62.3H1790.8z M1363.2,1513.4c0.8-0.8,1.6-1.5,2.4-2.3v0
	C1364.8,1511.9,1364,1512.7,1363.2,1513.4z M1790.8,1204l-12.6,62.3h52.6l12.6-62.3H1790.8z M1790.8,1204l-12.6,62.3h52.6l12.6-62.3
	H1790.8z M1363.2,1513.4c0.8-0.8,1.6-1.5,2.4-2.3v0C1364.8,1511.9,1363.9,1512.7,1363.2,1513.4
	C1363.1,1513.5,1363.1,1513.5,1363.2,1513.4z M1362.6,1514c0.2-0.1,0.3-0.3,0.5-0.5c-0.3,0.3-0.6,0.6-0.9,0.9
	C1362.3,1514.2,1362.5,1514.1,1362.6,1514z M1356.1,1520c0.7-0.7,1.5-1.3,2.2-2c0.4-0.3,0.7-0.7,1.1-1c0.5-0.4,0.9-0.9,1.4-1.3
	c0.5-0.4,0.9-0.9,1.4-1.3c-1.6,1.6-3.3,3.1-5,4.7C1356.9,1519.4,1356.5,1519.7,1356.1,1520z M1790.8,1204l-12.6,62.3h52.6l12.6-62.3
	H1790.8z M2218.3,735.3c0-41.9-9-79-27.1-110.8c-17.8-31.3-44.5-57.5-80.3-78.2C1815.6,376,1520,206.2,1224.7,35.8
	c-79.6-46-156.8-44.3-235.8,2.3c-117.5,69.3-706.1,406.5-881.4,508.1C35.3,588.1,0.1,652.1,0.1,735.3C0,1077.7,0.1,1420.2,0,1762.6
	c0,41,8.6,77.3,25.9,108.6c0,0,0,0.1,0,0.1c17.8,32.2,44.9,59,81.5,80.2c175.4,101.6,764,438.7,881.5,508.1
	c79,46.6,156.2,48.3,235.8,2.3c295.2-170.5,590.9-340.2,886.2-510.5c36.6-21.2,63.6-48.1,81.5-80.2c0,0,0,0,0-0.1c0,0,0,0,0,0
	c17.3-31.3,25.9-67.6,25.9-108.7c0.1,0,0.1-204.7,0.1-446.3C2218.4,1115.9,2218.4,890.5,2218.3,735.3z M1958.3,1266.3v55.3h-79.8
	l-20.7,109h-59.1l20.9-109h-52.1l-20.4,109h-57.7l19.9-109h-63.9v-55.3h74.4l12.6-62.3h-67.7v-56.1h77.6l20.7-109.3h58.8
	l-20.7,109.3h53.2l21-109.3h57.7l-21,109.3h64.5v56.1h-74.9l-12.6,62.3H1958.3z M1748.8,1614.5
	c-126.9,221.8-365.9,371.3-639.8,371.3c-273.4,0-512-148.9-639.1-370.1c0,0,0,0,0,0c-62.1-108-97.6-233.1-97.6-366.6
	c0-406.9,329.8-736.7,736.7-736.7c272.5,0,510.4,148,637.9,367.9l-320.6,184.6c-63.6-109.3-181.8-182.7-317.2-182.7
	c-202.6,0-366.8,164.2-366.8,366.8c0,63.9,16.6,126.6,48.4,182c63.3,110.3,182.1,184.8,318.5,184.8c1.6,0,3.2,0,4.8,0
	c0.4,0,0.8,0,1.2,0c1.4,0,2.8-0.1,4.2-0.1c1.6,0,3.2-0.1,4.8-0.2c2.1-0.1,4.2-0.2,6.3-0.3c0.6,0,1.2-0.1,1.8-0.1
	c0.4,0,0.7,0,1.1-0.1c0,0,0,0,0,0c1.3-0.1,2.5-0.2,3.8-0.3c0.3,0,0.5,0,0.8-0.1c0.7,0,1.4-0.1,2.1-0.2c1.1-0.1,2.2-0.2,3.4-0.3
	c0.5,0,1-0.1,1.4-0.1c2.7-0.3,5.4-0.5,8-0.9c0.6-0.1,1.1-0.1,1.7-0.2c0.2,0,0.3,0,0.5-0.1c1-0.1,2-0.2,3-0.4c0.5-0.1,1-0.1,1.6-0.2
	c1.2-0.2,2.3-0.3,3.5-0.5c2.2-0.3,4.5-0.7,6.7-1.1c1.3-0.2,2.5-0.4,3.8-0.7c1.7-0.3,3.4-0.6,5.1-0.9c3.1-0.6,6.2-1.2,9.3-1.9
	c1.3-0.3,2.5-0.6,3.8-0.9c0.1,0,0.1,0,0.2,0c0.5-0.1,1-0.2,1.5-0.4c2.6-0.6,5.2-1.2,7.7-1.9c0.8-0.2,1.7-0.4,2.5-0.7
	c2.4-0.6,4.7-1.3,7-1.9c0.4-0.1,0.8-0.2,1.2-0.4c1.1-0.3,2.1-0.6,3.2-0.9c0.7-0.2,1.4-0.4,2.1-0.6c0.9-0.3,1.7-0.5,2.6-0.8
	c0.9-0.3,1.7-0.6,2.6-0.8c2-0.6,4-1.3,6-2c0.7-0.2,1.4-0.5,2.1-0.7c1-0.3,2-0.7,3-1.1c0.5-0.2,1-0.4,1.5-0.5
	c1.1-0.4,2.1-0.8,3.1-1.2c0.9-0.3,1.8-0.7,2.7-1c1-0.4,2.1-0.8,3.1-1.2c1.2-0.5,2.4-0.9,3.6-1.4c0.6-0.3,1.3-0.5,1.9-0.8
	c2.1-0.9,4.3-1.8,6.4-2.7c0.7-0.3,1.4-0.6,2.1-0.9c0.8-0.3,1.6-0.7,2.4-1.1c0.3-0.1,0.7-0.3,1-0.5c0.9-0.4,1.8-0.8,2.6-1.2
	c0.5-0.2,1.1-0.5,1.6-0.8c1.1-0.5,2.2-1.1,3.4-1.6c0.4-0.2,0.8-0.4,1.2-0.6c0.1,0,0.1-0.1,0.2-0.1c1.1-0.6,2.2-1.1,3.4-1.7
	c1.1-0.5,2.2-1.1,3.2-1.7c0.2-0.1,0.3-0.2,0.5-0.3c0.4-0.2,0.8-0.4,1.2-0.6c3.5-1.8,6.9-3.7,10.3-5.6c0.9-0.5,1.8-1,2.7-1.5
	c1.2-0.7,2.4-1.4,3.5-2.1c0.6-0.3,1.2-0.7,1.8-1.1c0.6-0.3,1.1-0.7,1.7-1c1-0.6,2.1-1.2,3.1-1.9c0.5-0.3,1.1-0.7,1.6-1
	c1.3-0.8,2.7-1.7,4-2.5c0.1,0,0.2-0.1,0.2-0.1c1-0.6,2-1.3,3-2c1.3-0.9,2.6-1.7,3.9-2.6c1.3-0.9,2.6-1.8,3.9-2.7s2.6-1.8,3.9-2.7
	c1-0.7,2.1-1.5,3.1-2.2c1-0.7,2-1.4,2.9-2.2c0.4-0.2,0.7-0.5,1.1-0.8c0.9-0.7,1.8-1.4,2.7-2.1c0.8-0.6,1.7-1.3,2.5-1.9
	c0.9-0.7,1.8-1.4,2.7-2.1c1-0.8,2-1.6,3-2.4c0.3-0.2,0.5-0.5,0.8-0.7c0.6-0.4,1.1-0.9,1.7-1.4c1.1-0.9,2.3-1.9,3.4-2.8
	c1.1-0.9,2.2-1.9,3.3-2.8c0.1-0.1,0.2-0.2,0.4-0.3c1-0.9,2-1.8,3-2.7c0.8-0.7,1.6-1.4,2.4-2.2c0.1-0.1,0.3-0.2,0.4-0.4
	c0.1-0.1,0.3-0.3,0.4-0.4c0.7-0.7,1.5-1.3,2.2-2c0.4-0.3,0.7-0.7,1.1-1c0.5-0.4,0.9-0.9,1.4-1.3c0.5-0.4,0.9-0.9,1.4-1.3
	c0.2-0.1,0.3-0.3,0.4-0.4c0.2-0.1,0.3-0.3,0.5-0.5c0,0,0,0,0.1-0.1c0.8-0.8,1.6-1.5,2.4-2.3v0c0.1-0.1,0.1-0.1,0.2-0.2
	c1.1-1,2.1-2.1,3.1-3.1c1.1-1.1,2.2-2.2,3.3-3.4c0.8-0.8,1.6-1.7,2.4-2.5c0.8-0.8,1.6-1.7,2.4-2.6c0.8-0.9,1.6-1.7,2.4-2.6
	c0.8-0.9,1.6-1.7,2.4-2.6c1.3-1.5,2.7-3,4-4.5c1.3-1.5,2.6-3,3.9-4.5c0.6-0.8,1.3-1.5,1.9-2.3c1.9-2.3,3.8-4.6,5.6-7
	c0.6-0.8,1.2-1.6,1.8-2.4c0.6-0.8,1.2-1.5,1.8-2.3c2.4-3.1,4.8-6.3,7.1-9.6c0.6-0.8,1.1-1.5,1.6-2.3c0-0.1,0.1-0.2,0.2-0.2
	c0.9-1.2,1.7-2.4,2.5-3.7c0.7-1.1,1.5-2.2,2.2-3.2c0.7-1,1.3-2,2-3c0.1-0.1,0.1-0.2,0.2-0.3h0c0.7-1.1,1.4-2.2,2.1-3.2c0,0,0,0,0,0
	c0,0,0,0,0,0h0c0,0,0.1-0.1,0.1-0.1c0,0,0-0.1,0.1-0.1c0,0,0,0,0,0c0,0,0.1-0.1,0.1-0.1c1.2-1.9,2.4-3.8,3.5-5.7
	c0.6-1,1.2-1.9,1.8-2.9c0.4-0.6,0.8-1.2,1.1-1.9c1.2-2,2.3-3.9,3.4-5.9L1748.8,1614.5z M1778.2,1266.3h52.6l12.6-62.3h-52.6
	L1778.2,1266.3z M1790.8,1204l-12.6,62.3h52.6l12.6-62.3H1790.8z M1357.2,1519c-0.3,0.3-0.7,0.7-1.1,1c0.7-0.7,1.5-1.3,2.2-2
	c0.4-0.3,0.7-0.7,1.1-1c0.5-0.4,0.9-0.9,1.4-1.3c0.5-0.4,0.9-0.9,1.4-1.3C1360.6,1515.9,1358.9,1517.5,1357.2,1519z M1363.2,1513.4
	c0.8-0.8,1.6-1.5,2.4-2.3v0C1364.8,1511.9,1364,1512.7,1363.2,1513.4z M1790.8,1204l-12.6,62.3h52.6l12.6-62.3H1790.8z M1790.8,1204
	l-12.6,62.3h52.6l12.6-62.3H1790.8z M1363.2,1513.4c0.8-0.8,1.6-1.5,2.4-2.3v0C1364.8,1511.9,1364,1512.7,1363.2,1513.4z
	 M1790.8,1204l-12.6,62.3h52.6l12.6-62.3H1790.8z M1790.8,1204l-12.6,62.3h52.6l12.6-62.3H1790.8z M1363.2,1513.4
	c0.8-0.8,1.6-1.5,2.4-2.3v0C1364.8,1511.9,1364,1512.7,1363.2,1513.4z M1790.8,1204l-12.6,62.3h52.6l12.6-62.3H1790.8z M1790.8,1204
	l-12.6,62.3h52.6l12.6-62.3H1790.8z M1363.2,1513.4c0.8-0.8,1.6-1.5,2.4-2.3v0C1364.8,1511.9,1364,1512.7,1363.2,1513.4z
	 M1790.8,1204l-12.6,62.3h52.6l12.6-62.3H1790.8z"/>
<path class="st1" d="M1428.8,1428.8L1428.8,1428.8c-5.1,9.1-10.7,18-16.5,26.6c-0.8,1.2-1.7,2.5-2.5,3.7c-0.1,0.1-0.1,0.2-0.2,0.2
	c-0.5,0.8-1.1,1.5-1.6,2.3c-2.3,3.2-4.6,6.4-7.1,9.6c-0.6,0.8-1.2,1.6-1.8,2.3c-0.6,0.8-1.2,1.6-1.8,2.4c-1.8,2.3-3.7,4.7-5.6,7
	c-0.6,0.8-1.3,1.5-1.9,2.3c-1.3,1.5-2.6,3-3.9,4.5c-1.3,1.5-2.6,3-4,4.5c-67.1,74.7-164.5,121.7-272.8,121.7
	c-136.4,0-255.2-74.5-318.5-184.8l0.1-0.1l321.9-185.3L1428.8,1428.8z"/>
<path class="st1" d="M2192.4,1871.2c-17.9,32.2-44.9,59.1-81.5,80.3c-295.3,170.3-591,340-886.2,510.5
	c-79.6,46-156.8,44.3-235.8-2.3c-117.5-69.4-706.1-406.5-881.5-508.1c-36.6-21.2-63.7-48.1-81.5-80.3l0,0l443.9-255.6c0,0,0,0,0,0
	c127.1,221.2,365.7,370.1,639.1,370.1c273.9,0,512.9-149.5,639.8-371.3l-320-185.7L2192.4,1871.2L2192.4,1871.2z"/>
<path class="st1" d="M1428.9,1428.7C1428.9,1428.7,1428.9,1428.7,1428.9,1428.7c0,0.1-0.1,0.1-0.1,0.1c-5.2,9.1-10.7,18-16.6,26.6
	c-0.8,1.2-1.7,2.5-2.5,3.7c-0.1,0.1-0.1,0.2-0.2,0.2c-0.5,0.8-1.1,1.5-1.6,2.3c-2.3,3.2-4.6,6.4-7.1,9.6c-0.6,0.8-1.2,1.6-1.8,2.3
	c-0.6,0.8-1.2,1.6-1.8,2.4c-1.8,2.3-3.7,4.7-5.6,7c-0.6,0.8-1.3,1.5-1.9,2.3c-1.3,1.5-2.6,3-3.9,4.5c-1.3,1.5-2.6,3-4,4.5
	c-67.2,74.6-164.4,121.6-272.7,121.6c-136.4,0-255.3-74.4-318.5-184.8c0,0,0,0,0,0l321.9-185.4L1428.9,1428.7z"/>
<polygon class="st2" points="1843.4,1204 1830.8,1266.3 1778.2,1266.3 1790.8,1204 "/>
<path class="st2" d="M2218.4,1316.1c0-200.2,0-425.6-0.1-580.8c0-41.9-9-79-27.1-110.8l-444.3,255.8l-320.6,184.6l-313.7,180.6
	l316.3,183.2l763.5,442.3l0.1,0c17.3-31.3,25.9-67.6,25.9-108.7C2218.4,1762.4,2218.4,1557.7,2218.4,1316.1z M1976.6,1204h-74.9
	l-12.6,62.3h69.3v55.3h-79.8l-20.7,109h-59.1l20.9-109h-52.1l-20.4,109h-57.7l19.9-109h-63.9v-55.3h74.4l12.6-62.3h-67.7v-56.1h77.6
	l20.7-109.3h58.8l-20.7,109.3h53.2l21-109.3h57.7l-21,109.3h64.5V1204z"/>
<path class="st3" d="M1426.3,1065C1426.3,1065,1426.3,1064.9,1426.3,1065l320.6-184.7c0,0,0,0,0,0.1L1426.3,1065z"/>
<path class="st3" d="M1428.8,1428.8c-5.2,9.1-10.7,18-16.6,26.6C1418.1,1446.8,1423.7,1437.9,1428.8,1428.8L1428.8,1428.8z"/>
</svg>
