{
  "files": {
    "main.css": "/sp-connect/static/css/main.073c9b0a.css",
    "main.js": "/sp-connect/static/js/main.5bac6af9.js",
    "static/js/787.078db9cc.chunk.js": "/sp-connect/static/js/787.078db9cc.chunk.js",
    "static/media/logo.svg": "/sp-connect/static/media/logo.6ce24c58023cc2f8fd88fe9d219db6c6.svg",
    "index.html": "/sp-connect/index.html",
    "main.073c9b0a.css.map": "/sp-connect/static/css/main.073c9b0a.css.map",
    "main.5bac6af9.js.map": "/sp-connect/static/js/main.5bac6af9.js.map",
    "787.078db9cc.chunk.js.map": "/sp-connect/static/js/787.078db9cc.chunk.js.map"
  },
  "entrypoints": [
    "static/css/main.073c9b0a.css",
    "static/js/main.5bac6af9.js"
  ]
}