<svg class="defs-only">
  <filter id="monochrome" color-interpolation-filters="sRGB"
          x="0" y="0" height="100%" width="100%">
    <feColorMatrix type="matrix"
                   values="
    0.13 0.1333 0.1333 0
    0 0.4833 0.4833 0.4833 0
    0 0.2933 0.2933 0.2933 0
    0 0 0 0 1 0"/>
  </filter>
</svg>